NULL
Esc
1
2
3
4
5
6
7
8
9
0
-
=
Backspace
Tab
Q
W
E
R
T
Y
U
I
O
P
[
]
Enter
Ctrl
A
S
D
F
G
H
J
K
L
;
'
`
Shift
\
Z
X
C
V
B
N
M
,
.
/
Right Shift
Num *
Alt
Space
Caps Lock
F1
F2
F3
F4
F5
F6
F7
F8
F9
F10
Pause
Scroll Lock
Num 7
Num 8
Num 9
Num -
Num 4
Num 5
Num 6
Num +
Num 1
Num 2
Num 3
Num 0
Num Del
NULL
NULL
\
F11
F12
